<mxfile host="Electron" modified="2024-03-07T23:10:04.517Z" agent="Mozilla/5.0 (X11; Linux x86_64) AppleWebKit/537.36 (KHTML, like Gecko) draw.io/23.1.5 Chrome/120.0.6099.109 Electron/28.1.0 Safari/537.36" etag="YZDgbbr-dA4ZxgtxLWJ4" version="23.1.5" type="device">
  <diagram name="Page-1" id="unTTwi1jkB9B0JeogD6D">
    <mxGraphModel dx="2607" dy="1516" grid="1" gridSize="10" guides="1" tooltips="1" connect="1" arrows="1" fold="1" page="1" pageScale="1" pageWidth="1000" pageHeight="1000" math="0" shadow="0">
      <root>
        <mxCell id="0" />
        <mxCell id="1" parent="0" />
        <mxCell id="SlA2hddnN_JYL4j8Afwv-1" value="" style="rounded=0;whiteSpace=wrap;html=1;strokeWidth=8;" vertex="1" parent="1">
          <mxGeometry x="80" y="80" width="840" height="840" as="geometry" />
        </mxCell>
        <mxCell id="SlA2hddnN_JYL4j8Afwv-4" value="" style="endArrow=none;html=1;rounded=0;entryX=0.5;entryY=1;entryDx=0;entryDy=0;exitX=0.5;exitY=0;exitDx=0;exitDy=0;strokeWidth=8;" edge="1" parent="1" source="SlA2hddnN_JYL4j8Afwv-1" target="SlA2hddnN_JYL4j8Afwv-1">
          <mxGeometry width="50" height="50" relative="1" as="geometry">
            <mxPoint x="490" y="60" as="sourcePoint" />
            <mxPoint x="810" y="570" as="targetPoint" />
          </mxGeometry>
        </mxCell>
        <mxCell id="SlA2hddnN_JYL4j8Afwv-5" value="" style="endArrow=none;html=1;rounded=0;entryX=0;entryY=0.5;entryDx=0;entryDy=0;exitX=1;exitY=0.5;exitDx=0;exitDy=0;strokeWidth=8;" edge="1" parent="1" source="SlA2hddnN_JYL4j8Afwv-1" target="SlA2hddnN_JYL4j8Afwv-1">
          <mxGeometry width="50" height="50" relative="1" as="geometry">
            <mxPoint x="510" y="90" as="sourcePoint" />
            <mxPoint x="510" y="930" as="targetPoint" />
          </mxGeometry>
        </mxCell>
        <mxCell id="SlA2hddnN_JYL4j8Afwv-6" value="&lt;font style=&quot;font-size: 26px;&quot;&gt;STRENGTHS&lt;br&gt;-&amp;nbsp;&lt;br&gt;-&lt;br&gt;&lt;/font&gt;&lt;span style=&quot;font-family:monospace&quot;&gt;&lt;br&gt;&lt;/span&gt;" style="text;html=1;align=center;verticalAlign=middle;whiteSpace=wrap;rounded=0;" vertex="1" parent="1">
          <mxGeometry x="90" y="90" width="400" height="400" as="geometry" />
        </mxCell>
        <mxCell id="SlA2hddnN_JYL4j8Afwv-7" value="&lt;font style=&quot;font-size: 26px;&quot;&gt;WEAKNESSES-&amp;nbsp;&lt;br&gt;-&lt;br&gt;-&lt;br&gt;&lt;br&gt;&lt;/font&gt;&lt;span style=&quot;font-family:monospace&quot;&gt;&lt;/span&gt;" style="text;html=1;align=center;verticalAlign=middle;whiteSpace=wrap;rounded=0;" vertex="1" parent="1">
          <mxGeometry x="510" y="90" width="400" height="400" as="geometry" />
        </mxCell>
        <mxCell id="SlA2hddnN_JYL4j8Afwv-8" value="&lt;font style=&quot;font-size: 26px;&quot;&gt;THREATS&lt;br&gt;-&amp;nbsp;&lt;br&gt;-&lt;br&gt;&lt;/font&gt;&lt;span style=&quot;font-family:monospace&quot;&gt;&lt;br&gt;&lt;/span&gt;" style="text;html=1;align=center;verticalAlign=middle;whiteSpace=wrap;rounded=0;" vertex="1" parent="1">
          <mxGeometry x="90" y="510" width="400" height="400" as="geometry" />
        </mxCell>
        <mxCell id="SlA2hddnN_JYL4j8Afwv-9" value="&lt;font style=&quot;font-size: 26px;&quot;&gt;OPPORTUNITIES&lt;br&gt;-&amp;nbsp;&lt;br&gt;-&lt;br&gt;&lt;br&gt;&lt;/font&gt;&lt;span style=&quot;font-family:monospace&quot;&gt;&lt;/span&gt;" style="text;html=1;align=center;verticalAlign=middle;whiteSpace=wrap;rounded=0;" vertex="1" parent="1">
          <mxGeometry x="510" y="510" width="400" height="400" as="geometry" />
        </mxCell>
      </root>
    </mxGraphModel>
  </diagram>
</mxfile>
